[
	{
		sName: "checkin",
		title: {
			sMain: "Check-In/Out",
			sSub: "Speed, friendliness, or ease of checking in and out"
		},
		link: {
			sUrl: "/checkin",
			//sIcon: "/ic_local_offer_black_48dp.png"
			sIcon: "local_offer"
		}
	},
	{
		sName: "room",
		title: {
			sMain: "Room",
			sSub: "Quality of the room, condition of the amenites"
		},
		link: {
			sUrl: "/room",
			//sIcon: "/ic_hotel_black_48dp.png"
			sIcon: "hotel"
		}
	},
	{
		sName: "service",
		title: {
			sMain: "Service",
			sSub: "Speed or friendliness of the service or staff."
		},
		link: {
			sUrl: "/service",
			//sIcon: "/ic_room_service_black_48dp.png"
			sIcon: "room_service"
		}
	},
	{
		sName: "food",
		title: {
			sMain: "Food",
			sSub: "Quality, presentation, or spead of the food or drinks."
		},
		link: {
			sUrl: "/food",
			//sIcon: "/ic_restaurant_black_48dp.png"
			sIcon: "restaurant"
		}
	},
	{
		sName: "other",
		title: {
			sMain: "Food",
			sSub: "Quality, presentation, or spead of the food or drinks."
		},
		link: {
			sUrl: "/other",
			//sIcon: "/ic_restaurant_black_48dp.png"
			sIcon: "restaurant"
		}
	},
	{
		sName: "massage",
		title: {
			sMain: "Food",
			sSub: "Quality, presentation, or spead of the food or drinks."
		},
		link: {
			sUrl: "/food",
			//sIcon: "/ic_restaurant_black_48dp.png"
			sIcon: "restaurant"
		}
	}
]
